[
  '{{repeat(100)}}',
  {
    "mall":'{{random("molinos", "santafe", "el tesoro")}}',
    "parking":{
        "in": '{{date(new Date(2019, 0, 1), new Date(), "dd/MM/YYYY")}}',
        "out": '{{date(new Date(2019, 0, 1), new Date(), "dd/MM/YYYY")}}'
      } ,
    car_id: '{{objectId()}}'
  }
]